…
    ## ── Conflicts ────────────────────────────────────────── tidyverse_conflicts() ──
    ## x dplyr::filter() masks stats::filter()
    ## x dplyr::lag()    masks stats::lag()

    ## 
    ## Attaching package: 'lubridate'

    ## The following objects are masked from 'package:base':
    ## 
    ##     date, intersect, setdiff, union

### Data upload and cleaning for trash data.

    ## # A tibble: 453 × 14
    ##    dumpster month  year date                weight_tons volume_cubic_yards
    ##       <dbl> <chr> <dbl> <dttm>                    <dbl>              <dbl>
    ##  1        1 May    2014 2014-05-16 00:00:00        4.31                 18
    ##  2        2 May    2014 2014-05-16 00:00:00        2.74                 13
    ##  3        3 May    2014 2014-05-16 00:00:00        3.45                 15
    ##  4        4 May    2014 2014-05-17 00:00:00        3.1                  15
    ##  5        5 May    2014 2014-05-17 00:00:00        4.06                 18
    ##  6        6 May    2014 2014-05-20 00:00:00        2.71                 13
    ##  7        7 May    2014 2014-05-21 00:00:00        1.91                  8
    ##  8        8 May    2014 2014-05-28 00:00:00        3.7                  16
    ##  9        9 June   2014 2014-06-05 00:00:00        2.52                 14
    ## 10       10 June   2014 2014-06-11 00:00:00        3.76                 18
    ## # … with 443 more rows, and 8 more variables: plastic_bottles <dbl>,
    ## #   polystyrene <dbl>, cigarette_butts <dbl>, glass_bottles <dbl>,
    ## #   grocery_bags <dbl>, chip_bags <dbl>, sports_balls <dbl>,
    ## #   homes_powered <dbl>
…
### Combining the 2018 and 2019 dataframes.

    ## # A tibble: 24 × 3
    ##    month     total  year
    ##    <chr>     <dbl> <dbl>
    ##  1 January    0.94  2018
    ##  2 February   4.8   2018
    ##  3 March      2.69  2018
    ##  4 April      4.69  2018
    ##  5 May        9.27  2018
    ##  6 June       4.77  2018
    ##  7 July      10.2   2018
    ##  8 August     6.45  2018
    ##  9 September 10.5   2018
    ## 10 October    2.12  2018
    ## # … with 14 more rows
…
### Data upload and cleaning for pols data.

    ## Rows: 822 Columns: 9

    ## ── Column specification ────────────────────────────────────────────────────────
    ## Delimiter: ","
    ## dbl  (8): prez_gop, gov_gop, sen_gop, rep_gop, prez_dem, gov_dem, sen_dem, r...
    ## date (1): mon

    ## 
    ## ℹ Use `spec()` to retrieve the full column specification for this data.
    ## ℹ Specify the column types or set `show_col_types = FALSE` to quiet this message.

    ## # A tibble: 822 × 9
    ##     year month     gov_gop sen_gop rep_gop gov_dem sen_dem rep_dem president
    ##    <dbl> <chr>       <dbl>   <dbl>   <dbl>   <dbl>   <dbl>   <dbl> <chr>    
    ##  1  1947 January        23      51     253      23      45     198 dem      
    ##  2  1947 February       23      51     253      23      45     198 dem      
    ##  3  1947 March          23      51     253      23      45     198 dem      
    ##  4  1947 April          23      51     253      23      45     198 dem      
    ##  5  1947 May            23      51     253      23      45     198 dem      
    ##  6  1947 June           23      51     253      23      45     198 dem      
    ##  7  1947 July           23      51     253      23      45     198 dem      
    ##  8  1947 August         23      51     253      23      45     198 dem      
    ##  9  1947 September      23      51     253      23      45     198 dem      
    ## 10  1947 October        23      51     253      23      45     198 dem      
    ## # … with 812 more rows

### Data upload and cleaning for snp data.

    ## Rows: 787 Columns: 2

    ## ── Column specification ────────────────────────────────────────────────────────
    ## Delimiter: ","
    ## chr (1): date
    ## dbl (1): close

    ## 
    ## ℹ Use `spec()` to retrieve the full column specification for this data.
    ## ℹ Specify the column types or set `show_col_types = FALSE` to quiet this message.

    ## # A tibble: 787 × 3
    ##     year month    close
    ##    <dbl> <chr>    <dbl>
    ##  1  2015 July     2080.
    ##  2  2015 June     2063.
    ##  3  2015 May      2107.
    ##  4  2015 April    2086.
    ##  5  2015 March    2068.
    ##  6  2015 February 2104.
    ##  7  2015 January  1995.
    ##  8  2014 December 2059.
    ##  9  2014 November 2068.
    ## 10  2014 October  2018.
    ## # … with 777 more rows

### Data upload and cleaning for unemployment data.

    ## Rows: 68 Columns: 13

    ## ── Column specification ────────────────────────────────────────────────────────
    ## Delimiter: ","
    ## dbl (13): Year, Jan, Feb, Mar, Apr, May, Jun, Jul, Aug, Sep, Oct, Nov, Dec

    ## 
    ## ℹ Use `spec()` to retrieve the full column specification for this data.
    ## ℹ Specify the column types or set `show_col_types = FALSE` to quiet this message.

    ## # A tibble: 816 × 3
    ##     year month     unemployment_rate
    ##    <dbl> <chr>                 <dbl>
    ##  1  1948 January                 3.4
    ##  2  1948 February                3.8
    ##  3  1948 March                   4  
    ##  4  1948 April                   3.9
    ##  5  1948 May                     3.5
    ##  6  1948 June                    3.6
    ##  7  1948 July                    3.6
    ##  8  1948 August                  3.9
    ##  9  1948 September               3.8
    ## 10  1948 October                 3.7
    ## # … with 806 more rows

### Combining the pols and snp dataframes.

    ## # A tibble: 786 × 10
    ##     year month   gov_gop sen_gop rep_gop gov_dem sen_dem rep_dem president close
    ##    <dbl> <chr>     <dbl>   <dbl>   <dbl>   <dbl>   <dbl>   <dbl> <chr>     <dbl>
    ##  1  1950 January      18      44     177      29      57     269 dem        17.0
    ##  2  1950 Februa…      18      44     177      29      57     269 dem        17.2
    ##  3  1950 March        18      44     177      29      57     269 dem        17.3
    ##  4  1950 April        18      44     177      29      57     269 dem        18.0
    ##  5  1950 May          18      44     177      29      57     269 dem        18.8
    ##  6  1950 June         18      44     177      29      57     269 dem        17.7
    ##  7  1950 July         18      44     177      29      57     269 dem        17.8
    ##  8  1950 August       18      44     177      29      57     269 dem        18.4
    ##  9  1950 Septem…      18      44     177      29      57     269 dem        19.5
    ## 10  1950 October      18      44     177      29      57     269 dem        19.5
    ## # … with 776 more rows

### Combining the pols\_snp and unemployment dataframes.

    ## # A tibble: 786 × 11
    ##     year month   gov_gop sen_gop rep_gop gov_dem sen_dem rep_dem president close
    ##    <dbl> <chr>     <dbl>   <dbl>   <dbl>   <dbl>   <dbl>   <dbl> <chr>     <dbl>
    ##  1  1950 January      18      44     177      29      57     269 dem        17.0
    ##  2  1950 Februa…      18      44     177      29      57     269 dem        17.2
    ##  3  1950 March        18      44     177      29      57     269 dem        17.3
    ##  4  1950 April        18      44     177      29      57     269 dem        18.0
    ##  5  1950 May          18      44     177      29      57     269 dem        18.8
    ##  6  1950 June         18      44     177      29      57     269 dem        17.7
    ##  7  1950 July         18      44     177      29      57     269 dem        17.8
    ##  8  1950 August       18      44     177      29      57     269 dem        18.4
    ##  9  1950 Septem…      18      44     177      29      57     269 dem        19.5
    ## 10  1950 October      18      44     177      29      57     269 dem        19.5
    ## # … with 776 more rows, and 1 more variable: unemployment_rate <dbl>
…
